\relax 
\providecommand\hyper@newdestlabel[2]{}
\providecommand*\new@tpo@label[2]{}
\bibstyle{biblatex}
\bibdata{BachelorThesis-blx,Bibliography,Bibliography}
\citation{biblatex-control}
\abx@aux@sortscheme{ynt}
\abx@aux@refcontext{ynt/global/}
\AC@reset@newl@bel
\providecommand\HyperFirstAtBeginDocument{\AtBeginDocument}
\HyperFirstAtBeginDocument{\ifx\hyper@anchor\@undefined
\global\let\oldcontentsline\contentsline
\gdef\contentsline#1#2#3#4{\oldcontentsline{#1}{#2}{#3}}
\global\let\oldnewlabel\newlabel
\gdef\newlabel#1#2{\newlabelxx{#1}#2}
\gdef\newlabelxx#1#2#3#4#5#6{\oldnewlabel{#1}{{#2}{#3}}}
\AtEndDocument{\ifx\hyper@anchor\@undefined
\let\contentsline\oldcontentsline
\let\newlabel\oldnewlabel
\fi}
\fi}
\global\let\hyper@last\relax 
\gdef\HyperFirstAtBeginDocument#1{#1}
\providecommand\HyField@AuxAddToFields[1]{}
\providecommand\HyField@AuxAddToCoFields[2]{}
\@writefile{toc}{\boolfalse {citerequest}\boolfalse {citetracker}\boolfalse {pagetracker}\boolfalse {backtracker}\relax }
\@writefile{lof}{\boolfalse {citerequest}\boolfalse {citetracker}\boolfalse {pagetracker}\boolfalse {backtracker}\relax }
\@writefile{lot}{\boolfalse {citerequest}\boolfalse {citetracker}\boolfalse {pagetracker}\boolfalse {backtracker}\relax }
\select@language{UKenglish}
\@writefile{toc}{\defcounter {refsection}{0}\relax }\@writefile{toc}{\select@language{UKenglish}}
\@writefile{lof}{\defcounter {refsection}{0}\relax }\@writefile{lof}{\select@language{UKenglish}}
\@writefile{lot}{\defcounter {refsection}{0}\relax }\@writefile{lot}{\select@language{UKenglish}}
\@writefile{toc}{\defcounter {refsection}{0}\relax }\@writefile{toc}{\contentsline {chapter}{\nonumberline List of Figures}{4}{chapter*.2}}
\AC@undonewlabel{acro:XML}
\newlabel{acro:XML}{{}{4}{\list@fname }{section*.3}{}}
\acronymused{XML}
\@writefile{toc}{\defcounter {refsection}{0}\relax }\@writefile{toc}{\contentsline {chapter}{\nonumberline Acronyms}{5}{chapter*.4}}
\@writefile{lof}{\defcounter {refsection}{0}\relax }\@writefile{lof}{\addvspace {10\p@ }}
\@writefile{lot}{\defcounter {refsection}{0}\relax }\@writefile{lot}{\addvspace {10\p@ }}
\@writefile{lol}{\defcounter {refsection}{0}\relax }\@writefile{lol}{\addvspace {10\p@ }}
\newacro{UI}[\AC@hyperlink{UI}{UI}]{User Interface}
\newacro{IT}[\AC@hyperlink{IT}{IT}]{Information Technology}
\newacro{UML}[\AC@hyperlink{UML}{UML}]{Unified Modeling Language}
\newacro{ML}[\AC@hyperlink{ML}{ML}]{Machine Learning}
\newacro{WPF}[\AC@hyperlink{WPF}{WPF}]{Windows Presentation Foundation}
\newacro{XML}[\AC@hyperlink{XML}{XML}]{Extensible Markup Language}
\newacro{SVG}[\AC@hyperlink{SVG}{SVG}]{Scalable Vector Graphic}
\newacro{ANN}[\AC@hyperlink{ANN}{ANN}]{Artificial Neural Network}
\newacro{OS}[\AC@hyperlink{OS}{OS}]{Operating System}
\citation{Xamarin}
\abx@aux@cite{Xamarin}
\abx@aux@segm{0}{0}{Xamarin}
\citation{Cocoa}
\abx@aux@cite{Cocoa}
\abx@aux@segm{0}{0}{Cocoa}
\citation{WPF}
\abx@aux@cite{WPF}
\abx@aux@segm{0}{0}{WPF}
\@writefile{toc}{\defcounter {refsection}{0}\relax }\@writefile{toc}{\contentsline {chapter}{\numberline {1}Introduction}{6}{chapter.1}}
\@writefile{lof}{\defcounter {refsection}{0}\relax }\@writefile{lof}{\addvspace {10\p@ }}
\@writefile{lot}{\defcounter {refsection}{0}\relax }\@writefile{lot}{\addvspace {10\p@ }}
\@writefile{lol}{\defcounter {refsection}{0}\relax }\@writefile{lol}{\addvspace {10\p@ }}
\AC@undonewlabel{acro:UML}
\newlabel{acro:UML}{{1}{6}{Introduction}{section*.5}{}}
\acronymused{UML}
\@writefile{toc}{\defcounter {refsection}{0}\relax }\@writefile{toc}{\contentsline {section}{\numberline {1.1}Technology}{6}{section.1.1}}
\@writefile{lof}{\defcounter {refsection}{0}\relax }\@writefile{lof}{\contentsline {figure}{\numberline {1.1}{\ignorespaces Build overview}}{6}{figure.1.1}}
\newlabel{fig:build}{{1.1}{6}{Build overview}{figure.1.1}{}}
\AC@undonewlabel{acro:UI}
\newlabel{acro:UI}{{1.1}{6}{Technology}{section*.6}{}}
\acronymused{UI}
\citation{XML}
\abx@aux@cite{XML}
\abx@aux@segm{0}{0}{XML}
\citation{SVG}
\abx@aux@cite{SVG}
\abx@aux@segm{0}{0}{SVG}
\citation{BitBucket}
\abx@aux@cite{BitBucket}
\abx@aux@segm{0}{0}{BitBucket}
\AC@undonewlabel{acro:WPF}
\newlabel{acro:WPF}{{1.1}{7}{Technology}{section*.7}{}}
\acronymused{WPF}
\acronymused{UI}
\acronymused{XML}
\AC@undonewlabel{acro:SVG}
\newlabel{acro:SVG}{{1.1}{7}{Technology}{section*.8}{}}
\acronymused{SVG}
\acronymused{SVG}
\acronymused{SVG}
\acronymused{SVG}
\acronymused{XML}
\@writefile{toc}{\defcounter {refsection}{0}\relax }\@writefile{toc}{\contentsline {section}{\numberline {1.2}Scope and goals}{7}{section.1.2}}
\acronymused{UI}
\@writefile{toc}{\defcounter {refsection}{0}\relax }\@writefile{toc}{\contentsline {subsection}{\numberline {1.2.1}Shape recognition and machine learning}{8}{subsection.1.2.1}}
\AC@undonewlabel{acro:ML}
\newlabel{acro:ML}{{1.2.1}{8}{Shape recognition and machine learning}{section*.9}{}}
\acronymused{ML}
\@writefile{toc}{\defcounter {refsection}{0}\relax }\@writefile{toc}{\contentsline {subsection}{\numberline {1.2.2}Requirements Engineering}{8}{subsection.1.2.2}}
\acronymused{UML}
\@writefile{toc}{\defcounter {refsection}{0}\relax }\@writefile{toc}{\contentsline {subsection}{\numberline {1.2.3}Implementation}{8}{subsection.1.2.3}}
\citation{someStudies}
\abx@aux@cite{someStudies}
\abx@aux@segm{0}{0}{someStudies}
\citation{NewAdvances}
\abx@aux@cite{NewAdvances}
\abx@aux@segm{0}{0}{NewAdvances}
\@writefile{toc}{\defcounter {refsection}{0}\relax }\@writefile{toc}{\contentsline {chapter}{\numberline {2}Machine Learning}{9}{chapter.2}}
\@writefile{lof}{\defcounter {refsection}{0}\relax }\@writefile{lof}{\addvspace {10\p@ }}
\@writefile{lot}{\defcounter {refsection}{0}\relax }\@writefile{lot}{\addvspace {10\p@ }}
\@writefile{lol}{\defcounter {refsection}{0}\relax }\@writefile{lol}{\addvspace {10\p@ }}
\acronymused{ML}
\@writefile{toc}{\defcounter {refsection}{0}\relax }\@writefile{toc}{\contentsline {section}{\numberline {2.1}Types of machine learning}{9}{section.2.1}}
\citation{AppleExample}
\abx@aux@cite{AppleExample}
\abx@aux@segm{0}{0}{AppleExample}
\citation{TOPTAL}
\abx@aux@cite{TOPTAL}
\abx@aux@segm{0}{0}{TOPTAL}
\acronymused{ML}
\@writefile{toc}{\defcounter {refsection}{0}\relax }\@writefile{toc}{\contentsline {subsection}{\numberline {2.1.1}Supervised machine learning}{10}{subsection.2.1.1}}
\acronymused{ML}
\@writefile{toc}{\defcounter {refsection}{0}\relax }\@writefile{toc}{\contentsline {section}{\numberline {2.2}Practical Example}{11}{section.2.2}}
\acronymused{ML}
\@writefile{lof}{\defcounter {refsection}{0}\relax }\@writefile{lof}{\contentsline {figure}{\numberline {2.1}{\ignorespaces Salary example scatter chart\ldots  }}{11}{figure.2.1}}
\newlabel{fig:mlEx1}{{2.1}{11}{Salary example scatter chart\ldots }{figure.2.1}{}}
\newlabel{eq:2}{{2.1}{11}{Practical Example}{equation.2.2.1}{}}
\newlabel{eq:1}{{2.2}{11}{Practical Example}{equation.2.2.2}{}}
\acronymused{ML}
\newlabel{eq:er}{{2.3}{12}{Practical Example}{equation.2.2.3}{}}
\acronymused{ML}
\@writefile{lof}{\defcounter {refsection}{0}\relax }\@writefile{lof}{\contentsline {figure}{\numberline {2.2}{\ignorespaces Salary example with prediction epoch 0\ldots  }}{12}{figure.2.2}}
\newlabel{fig:salary1}{{2.2}{12}{Salary example with prediction epoch 0\ldots }{figure.2.2}{}}
\citation{Empirical}
\abx@aux@cite{Empirical}
\abx@aux@segm{0}{0}{Empirical}
\@writefile{lof}{\defcounter {refsection}{0}\relax }\@writefile{lof}{\contentsline {figure}{\numberline {2.3}{\ignorespaces Salary example scatter chart - gradient descent epoch 1-3\ldots  }}{13}{figure.2.3}}
\newlabel{fig:salary2}{{2.3}{13}{Salary example scatter chart - gradient descent epoch 1-3\ldots }{figure.2.3}{}}
\acronymused{ML}
\@writefile{toc}{\defcounter {refsection}{0}\relax }\@writefile{toc}{\contentsline {section}{\numberline {2.3}Neural Networks}{13}{section.2.3}}
\AC@undonewlabel{acro:ANN}
\newlabel{acro:ANN}{{2.3}{13}{Neural Networks}{section*.10}{}}
\acronymused{ANN}
\@writefile{toc}{\defcounter {refsection}{0}\relax }\@writefile{toc}{\contentsline {subsection}{\numberline {2.3.1}Types}{14}{subsection.2.3.1}}
\@writefile{toc}{\defcounter {refsection}{0}\relax }\@writefile{toc}{\contentsline {subsection}{\numberline {2.3.2}Perceptrons}{14}{subsection.2.3.2}}
\@writefile{lof}{\defcounter {refsection}{0}\relax }\@writefile{lof}{\contentsline {figure}{\numberline {2.4}{\ignorespaces General perceptron}}{14}{figure.2.4}}
\newlabel{fig:perceptron01}{{2.4}{14}{General perceptron}{figure.2.4}{}}
\citation{NeuronCount}
\abx@aux@cite{NeuronCount}
\abx@aux@segm{0}{0}{NeuronCount}
\newlabel{eq:perceptron}{{2.4}{15}{Perceptrons}{equation.2.3.4}{}}
\@writefile{lof}{\defcounter {refsection}{0}\relax }\@writefile{lof}{\contentsline {figure}{\numberline {2.5}{\ignorespaces Perceptron example with activation.}}{15}{figure.2.5}}
\newlabel{fig:perceptron02}{{2.5}{15}{Perceptron example with activation}{figure.2.5}{}}
\@writefile{lof}{\defcounter {refsection}{0}\relax }\@writefile{lof}{\contentsline {figure}{\numberline {2.6}{\ignorespaces Perceptron example without activation.}}{15}{figure.2.6}}
\newlabel{fig:perceptron03}{{2.6}{15}{Perceptron example without activation}{figure.2.6}{}}
\citation{GoogleAi}
\abx@aux@cite{GoogleAi}
\abx@aux@segm{0}{0}{GoogleAi}
\citation{sigmoid}
\abx@aux@cite{sigmoid}
\abx@aux@segm{0}{0}{sigmoid}
\@writefile{lof}{\defcounter {refsection}{0}\relax }\@writefile{lof}{\contentsline {figure}{\numberline {2.7}{\ignorespaces Small example neural network.}}{16}{figure.2.7}}
\newlabel{fig:network01}{{2.7}{16}{Small example neural network}{figure.2.7}{}}
\acronymused{ML}
\@writefile{toc}{\defcounter {refsection}{0}\relax }\@writefile{toc}{\contentsline {subsection}{\numberline {2.3.3}Sigmoid function}{16}{subsection.2.3.3}}
\newlabel{eq:sigmoid}{{2.5}{17}{Sigmoid function}{equation.2.3.5}{}}
\newlabel{eq:activation}{{2.6}{17}{Sigmoid function}{equation.2.3.6}{}}
\@writefile{lof}{\defcounter {refsection}{0}\relax }\@writefile{lof}{\contentsline {figure}{\numberline {2.8}{\ignorespaces Sigmoid function\ldots  }}{17}{figure.2.8}}
\newlabel{fig:sigmoid}{{2.8}{17}{Sigmoid function\ldots }{figure.2.8}{}}
\@writefile{lof}{\defcounter {refsection}{0}\relax }\@writefile{lof}{\contentsline {figure}{\numberline {2.9}{\ignorespaces Perceptron activation function\ldots  }}{17}{figure.2.9}}
\newlabel{fig:perceptronPlot}{{2.9}{17}{Perceptron activation function\ldots }{figure.2.9}{}}
\@writefile{lof}{\defcounter {refsection}{0}\relax }\@writefile{lof}{\contentsline {figure}{\numberline {2.10}{\ignorespaces Perceptron example with sigmoid activation}}{18}{figure.2.10}}
\newlabel{fig:sigmoid01}{{2.10}{18}{Perceptron example with sigmoid activation}{figure.2.10}{}}
\acronymused{ML}
\@writefile{toc}{\defcounter {refsection}{0}\relax }\@writefile{toc}{\contentsline {section}{\numberline {2.4}Gradient descent}{18}{section.2.4}}
\acronymused{ML}
\newlabel{eq:genericMethod}{{2.7}{18}{Gradient descent}{equation.2.4.7}{}}
\@writefile{lof}{\defcounter {refsection}{0}\relax }\@writefile{lof}{\contentsline {figure}{\numberline {2.11}{\ignorespaces Partial Derivate Example}}{19}{figure.2.11}}
\newlabel{fig:gradient}{{2.11}{19}{Partial Derivate Example}{figure.2.11}{}}
\@writefile{toc}{\defcounter {refsection}{0}\relax }\@writefile{toc}{\contentsline {chapter}{\numberline {3}Shape Recognition}{21}{chapter.3}}
\@writefile{lof}{\defcounter {refsection}{0}\relax }\@writefile{lof}{\addvspace {10\p@ }}
\@writefile{lot}{\defcounter {refsection}{0}\relax }\@writefile{lot}{\addvspace {10\p@ }}
\@writefile{lol}{\defcounter {refsection}{0}\relax }\@writefile{lol}{\addvspace {10\p@ }}
\acronymused{ML}
\@writefile{lof}{\defcounter {refsection}{0}\relax }\@writefile{lof}{\contentsline {figure}{\numberline {3.1}{\ignorespaces Free hand drawn shape conversion example}}{21}{figure.3.1}}
\newlabel{fig:shapeConversion}{{3.1}{21}{Free hand drawn shape conversion example}{figure.3.1}{}}
\@writefile{toc}{\defcounter {refsection}{0}\relax }\@writefile{toc}{\contentsline {section}{\numberline {3.1}Mapping the problem}{21}{section.3.1}}
\acronymused{XML}
\@writefile{lof}{\defcounter {refsection}{0}\relax }\@writefile{lof}{\contentsline {figure}{\numberline {3.2}{\ignorespaces Points in \ac {XML}}}{22}{figure.3.2}}
\newlabel{fig:frog1}{{3.2}{22}{Points in \ac {XML}}{figure.3.2}{}}
\acronymused{XML}
\@writefile{lof}{\defcounter {refsection}{0}\relax }\@writefile{lof}{\contentsline {figure}{\numberline {3.3}{\ignorespaces Zoomed drawing of a circle}}{23}{figure.3.3}}
\newlabel{fig:circle01}{{3.3}{23}{Zoomed drawing of a circle}{figure.3.3}{}}
\acronymused{XML}
\@writefile{toc}{\defcounter {refsection}{0}\relax }\@writefile{toc}{\contentsline {section}{\numberline {3.2}Finding a good layout}{23}{section.3.2}}
\citation{Encog}
\abx@aux@cite{Encog}
\abx@aux@segm{0}{0}{Encog}
\acronymused{ML}
\@writefile{lof}{\defcounter {refsection}{0}\relax }\@writefile{lof}{\contentsline {figure}{\numberline {3.4}{\ignorespaces Hand drawn circle in resolutions $16^2$, $32^2$ and $64^2$\ldots  }}{24}{figure.3.4}}
\newlabel{fig:circle03}{{3.4}{24}{Hand drawn circle in resolutions $16^2$, $32^2$ and $64^2$\ldots }{figure.3.4}{}}
\acronymused{XML}
\citation{backProp}
\abx@aux@cite{backProp}
\abx@aux@segm{0}{0}{backProp}
\@writefile{toc}{\defcounter {refsection}{0}\relax }\@writefile{toc}{\contentsline {section}{\numberline {3.3}Finding good bias and weights}{25}{section.3.3}}
\@writefile{toc}{\defcounter {refsection}{0}\relax }\@writefile{toc}{\contentsline {subsection}{\numberline {3.3.1}Back propagation}{25}{subsection.3.3.1}}
\@writefile{toc}{\defcounter {refsection}{0}\relax }\@writefile{toc}{\contentsline {section}{\numberline {3.4}Training results}{26}{section.3.4}}
\@writefile{lof}{\defcounter {refsection}{0}\relax }\@writefile{lof}{\contentsline {figure}{\numberline {3.5}{\ignorespaces Top three test results, when sorting by most test shapes recognized correctly}}{26}{figure.3.5}}
\newlabel{fig:topThree01}{{3.5}{26}{Top three test results, when sorting by most test shapes recognized correctly}{figure.3.5}{}}
\@writefile{lof}{\defcounter {refsection}{0}\relax }\@writefile{lof}{\contentsline {figure}{\numberline {3.6}{\ignorespaces Top three test results, when sorting by lost error rate}}{26}{figure.3.6}}
\newlabel{fig:topThree02}{{3.6}{26}{Top three test results, when sorting by lost error rate}{figure.3.6}{}}
\@writefile{lof}{\defcounter {refsection}{0}\relax }\@writefile{lof}{\contentsline {figure}{\numberline {3.7}{\ignorespaces Picture resolutions with average error rates and correctly recognized tests}}{27}{figure.3.7}}
\newlabel{fig:resComp}{{3.7}{27}{Picture resolutions with average error rates and correctly recognized tests}{figure.3.7}{}}
\@writefile{lof}{\defcounter {refsection}{0}\relax }\@writefile{lof}{\contentsline {figure}{\numberline {3.8}{\ignorespaces Top three test results, when sorting by lost error rate}}{27}{figure.3.8}}
\newlabel{fig:comp}{{3.8}{27}{Top three test results, when sorting by lost error rate}{figure.3.8}{}}
\@writefile{lof}{\defcounter {refsection}{0}\relax }\@writefile{lof}{\contentsline {figure}{\numberline {3.9}{\ignorespaces Encog and System Designer average error rates and correct test shapes}}{27}{figure.3.9}}
\newlabel{fig:comp2}{{3.9}{27}{Encog and System Designer average error rates and correct test shapes}{figure.3.9}{}}
\@writefile{lof}{\defcounter {refsection}{0}\relax }\@writefile{lof}{\contentsline {figure}{\numberline {3.10}{\ignorespaces Learning rate compared to average error rate}}{28}{figure.3.10}}
\newlabel{fig:learnRate}{{3.10}{28}{Learning rate compared to average error rate}{figure.3.10}{}}
\@writefile{lof}{\defcounter {refsection}{0}\relax }\@writefile{lof}{\contentsline {figure}{\numberline {3.11}{\ignorespaces Hidden layer constellations in relation to average error rates}}{28}{figure.3.11}}
\newlabel{fig:hiddenLayerToAvgError}{{3.11}{28}{Hidden layer constellations in relation to average error rates}{figure.3.11}{}}
\@writefile{toc}{\defcounter {refsection}{0}\relax }\@writefile{toc}{\contentsline {chapter}{\numberline {4}Requirements Engineering}{29}{chapter.4}}
\@writefile{lof}{\defcounter {refsection}{0}\relax }\@writefile{lof}{\addvspace {10\p@ }}
\@writefile{lot}{\defcounter {refsection}{0}\relax }\@writefile{lot}{\addvspace {10\p@ }}
\@writefile{lol}{\defcounter {refsection}{0}\relax }\@writefile{lol}{\addvspace {10\p@ }}
\@writefile{toc}{\defcounter {refsection}{0}\relax }\@writefile{toc}{\contentsline {section}{\numberline {4.1}Overview}{29}{section.4.1}}
\AC@undonewlabel{acro:OS}
\newlabel{acro:OS}{{4.1}{29}{Overview}{section*.11}{}}
\acronymused{OS}
\acronymused{UI}
\acronymused{UI}
\@writefile{toc}{\defcounter {refsection}{0}\relax }\@writefile{toc}{\contentsline {section}{\numberline {4.2}Tools}{29}{section.4.2}}
\@writefile{toc}{\defcounter {refsection}{0}\relax }\@writefile{toc}{\contentsline {paragraph}{\nonumberline Tool options}{29}{section*.12}}
\@writefile{toc}{\defcounter {refsection}{0}\relax }\@writefile{toc}{\contentsline {paragraph}{\nonumberline Tool modifier}{30}{section*.13}}
\@writefile{toc}{\defcounter {refsection}{0}\relax }\@writefile{toc}{\contentsline {paragraph}{\nonumberline Tool function}{30}{section*.14}}
\acronymused{UML}
\@writefile{lof}{\defcounter {refsection}{0}\relax }\@writefile{lof}{\contentsline {figure}{\numberline {4.1}{\ignorespaces Tool properties abstracted into actors}}{30}{figure.4.1}}
\newlabel{fig:toolAbstract}{{4.1}{30}{Tool properties abstracted into actors}{figure.4.1}{}}
\citation{BitBucket}
\abx@aux@segm{0}{0}{BitBucket}
\@writefile{lof}{\defcounter {refsection}{0}\relax }\@writefile{lof}{\contentsline {figure}{\numberline {4.2}{\ignorespaces Use case diagram of free hand tool}}{31}{figure.4.2}}
\newlabel{fig:freeHandUseCase}{{4.2}{31}{Use case diagram of free hand tool}{figure.4.2}{}}
\@writefile{lof}{\defcounter {refsection}{0}\relax }\@writefile{lof}{\contentsline {figure}{\numberline {4.3}{\ignorespaces Use case diagram of selection tool}}{32}{figure.4.3}}
\newlabel{fig:selectionToolUseCase}{{4.3}{32}{Use case diagram of selection tool}{figure.4.3}{}}
\acronymused{OS}
\acronymused{UI}
\acronymused{UI}
\@writefile{lof}{\defcounter {refsection}{0}\relax }\@writefile{lof}{\contentsline {figure}{\numberline {4.4}{\ignorespaces Touch user interface mock up}}{32}{figure.4.4}}
\newlabel{fig:uiMockup}{{4.4}{32}{Touch user interface mock up}{figure.4.4}{}}
\acronymused{OS}
\acronymused{UI}
\@writefile{lof}{\defcounter {refsection}{0}\relax }\@writefile{lof}{\contentsline {figure}{\numberline {4.5}{\ignorespaces Class diagram of the stage tools}}{33}{figure.4.5}}
\newlabel{fig:classDia}{{4.5}{33}{Class diagram of the stage tools}{figure.4.5}{}}
\citation{BitBucket}
\abx@aux@segm{0}{0}{BitBucket}
\@writefile{toc}{\defcounter {refsection}{0}\relax }\@writefile{toc}{\contentsline {chapter}{\numberline {5}Implementation}{34}{chapter.5}}
\@writefile{lof}{\defcounter {refsection}{0}\relax }\@writefile{lof}{\addvspace {10\p@ }}
\@writefile{lot}{\defcounter {refsection}{0}\relax }\@writefile{lot}{\addvspace {10\p@ }}
\@writefile{lol}{\defcounter {refsection}{0}\relax }\@writefile{lol}{\addvspace {10\p@ }}
\@writefile{toc}{\defcounter {refsection}{0}\relax }\@writefile{toc}{\contentsline {section}{\numberline {5.1}Progress}{34}{section.5.1}}
\acronymused{WPF}
\acronymused{SVG}
\acronymused{UI}
\acronymused{UI}
\@writefile{toc}{\defcounter {refsection}{0}\relax }\@writefile{toc}{\contentsline {section}{\numberline {5.2}Rendering}{34}{section.5.2}}
\citation{CoreGraphics}
\abx@aux@cite{CoreGraphics}
\abx@aux@segm{0}{0}{CoreGraphics}
\acronymused{OS}
\acronymused{OS}
\@writefile{lof}{\defcounter {refsection}{0}\relax }\@writefile{lof}{\contentsline {figure}{\numberline {5.1}{\ignorespaces Render cycle explanation example}}{35}{figure.5.1}}
\newlabel{fig:renderCycle}{{5.1}{35}{Render cycle explanation example}{figure.5.1}{}}
\newlabel{lst:test}{{5.1}{35}{Render cycle example - Heavily simplified called methods (pseudo code)}{lstlisting.5.1}{}}
\@writefile{lol}{\defcounter {refsection}{0}\relax }\@writefile{lol}{\contentsline {lstlisting}{\numberline {5.1}Render cycle example - Heavily simplified called methods (pseudo code)}{35}{lstlisting.5.1}}
\acronymused{OS}
\@writefile{toc}{\defcounter {refsection}{0}\relax }\@writefile{toc}{\contentsline {section}{\numberline {5.3}iOS Rotation}{36}{section.5.3}}
\@writefile{lof}{\defcounter {refsection}{0}\relax }\@writefile{lof}{\contentsline {figure}{\numberline {5.2}{\ignorespaces iOS Rotation Translation}}{36}{figure.5.2}}
\newlabel{fig:iosRotation}{{5.2}{36}{iOS Rotation Translation}{figure.5.2}{}}
\@writefile{toc}{\defcounter {refsection}{0}\relax }\@writefile{toc}{\contentsline {section}{\numberline {5.4}Application Frame}{37}{section.5.4}}
\acronymused{OS}
\@writefile{lof}{\defcounter {refsection}{0}\relax }\@writefile{lof}{\contentsline {figure}{\numberline {5.3}{\ignorespaces System Designer windows application marked}}{37}{figure.5.3}}
\newlabel{fig:sysDMarked}{{5.3}{37}{System Designer windows application marked}{figure.5.3}{}}
\acronymused{OS}
\@writefile{lof}{\defcounter {refsection}{0}\relax }\@writefile{lof}{\contentsline {figure}{\numberline {5.4}{\ignorespaces System Designer iOS implementation}}{38}{figure.5.4}}
\newlabel{fig:sysDiOS}{{5.4}{38}{System Designer iOS implementation}{figure.5.4}{}}
\@writefile{toc}{\defcounter {refsection}{0}\relax }\@writefile{toc}{\contentsline {section}{\numberline {5.5}Shortcuts}{38}{section.5.5}}
\acronymused{OS}
\@writefile{lof}{\defcounter {refsection}{0}\relax }\@writefile{lof}{\contentsline {figure}{\numberline {5.5}{\ignorespaces Class diagram of the shortcut structure}}{39}{figure.5.5}}
\newlabel{fig:classDiaShort}{{5.5}{39}{Class diagram of the shortcut structure}{figure.5.5}{}}
\@writefile{toc}{\defcounter {refsection}{0}\relax }\@writefile{toc}{\contentsline {section}{\numberline {5.6}Shape drawer}{39}{section.5.6}}
\acronymused{XML}
\@writefile{lof}{\defcounter {refsection}{0}\relax }\@writefile{lof}{\contentsline {figure}{\numberline {5.6}{\ignorespaces Use case diagram of the Shape Drawer utility}}{40}{figure.5.6}}
\newlabel{fig:useCaseShapeDrawer}{{5.6}{40}{Use case diagram of the Shape Drawer utility}{figure.5.6}{}}
\acronymused{XML}
\@writefile{toc}{\defcounter {refsection}{0}\relax }\@writefile{toc}{\contentsline {chapter}{\numberline {6}Conclusion}{41}{chapter.6}}
\@writefile{lof}{\defcounter {refsection}{0}\relax }\@writefile{lof}{\addvspace {10\p@ }}
\@writefile{lot}{\defcounter {refsection}{0}\relax }\@writefile{lot}{\addvspace {10\p@ }}
\@writefile{lol}{\defcounter {refsection}{0}\relax }\@writefile{lol}{\addvspace {10\p@ }}
\acronymused{UI}
\@writefile{toc}{\defcounter {refsection}{0}\relax }\@writefile{toc}{\contentsline {section}{\numberline {6.1}Outlook}{41}{section.6.1}}
\@writefile{toc}{\defcounter {refsection}{0}\relax }\@writefile{toc}{\contentsline {chapter}{\nonumberline Bibliography}{42}{chapter*.15}}
\@writefile{lof}{\defcounter {refsection}{0}\relax }\@writefile{lof}{\addvspace {10\p@ }}
\@writefile{lot}{\defcounter {refsection}{0}\relax }\@writefile{lot}{\addvspace {10\p@ }}
\@writefile{lol}{\defcounter {refsection}{0}\relax }\@writefile{lol}{\addvspace {10\p@ }}
\abx@aux@refcontextdefaultsdone
\abx@aux@defaultrefcontext{0}{sigmoid}{ynt/global/}
\abx@aux@defaultrefcontext{0}{someStudies}{ynt/global/}
\abx@aux@defaultrefcontext{0}{backProp}{ynt/global/}
\abx@aux@defaultrefcontext{0}{Empirical}{ynt/global/}
\abx@aux@defaultrefcontext{0}{NewAdvances}{ynt/global/}
\abx@aux@defaultrefcontext{0}{TOPTAL}{ynt/global/}
\abx@aux@defaultrefcontext{0}{NeuronCount}{ynt/global/}
\abx@aux@defaultrefcontext{0}{Cocoa}{ynt/global/}
\abx@aux@defaultrefcontext{0}{CoreGraphics}{ynt/global/}
\abx@aux@defaultrefcontext{0}{Encog}{ynt/global/}
\abx@aux@defaultrefcontext{0}{XML}{ynt/global/}
\abx@aux@defaultrefcontext{0}{GoogleAi}{ynt/global/}
\abx@aux@defaultrefcontext{0}{AppleExample}{ynt/global/}
\abx@aux@defaultrefcontext{0}{Xamarin}{ynt/global/}
\abx@aux@defaultrefcontext{0}{BitBucket}{ynt/global/}
\abx@aux@defaultrefcontext{0}{SVG}{ynt/global/}
\abx@aux@defaultrefcontext{0}{WPF}{ynt/global/}
\global\@namedef{scr@dte@chapter@lastmaxnumwidth}{12.14694pt}
\global\@namedef{scr@dte@section@lastmaxnumwidth}{19.70898pt}
\global\@namedef{scr@dte@subsection@lastmaxnumwidth}{28.84563pt}
