{
  "images": [
    {
      "orientation": "portrait",
      "extent": "full-screen",
      "minimum-system-version": "7.0",
      "scale": "2x",
      "size": "640x960",
      "idiom": "iphone",
      "filename": "Splash@2.png"
    },
    {
      "orientation": "portrait",
      "extent": "full-screen",
      "minimum-system-version": "7.0",
      "subtype": "retina4",
      "scale": "2x",
      "size": "640x1136",
      "idiom": "iphone",
      "filename": "Splash1336.png"
    },
    {
      "orientation": "portrait",
      "extent": "full-screen",
      "minimum-system-version": "7.0",
      "scale": "1x",
      "size": "768x1024",
      "idiom": "ipad",
      "filename": "SplashiPad.png"
    },
    {
      "orientation": "landscape",
      "extent": "full-screen",
      "minimum-system-version": "7.0",
      "scale": "1x",
      "size": "1024x768",
      "idiom": "ipad",
      "filename": "SplashiPadHorizontal.png"
    },
    {
      "orientation": "portrait",
      "extent": "full-screen",
      "minimum-system-version": "7.0",
      "scale": "2x",
      "size": "1536x2048",
      "idiom": "ipad",
      "filename": "SplashiPad@2.png"
    },
    {
      "orientation": "landscape",
      "extent": "full-screen",
      "minimum-system-version": "7.0",
      "scale": "2x",
      "size": "2048x1536",
      "idiom": "ipad",
      "filename": "SplashiPadHorizontal@2.png"
    },
    {
      "orientation": "portrait",
      "extent": "full-screen",
      "minimum-system-version": "8.0",
      "subtype": "667h",
      "scale": "2x",
      "size": "750x1334",
      "idiom": "iphone",
      "filename": "Splash47.png"
    },
    {
      "orientation": "portrait",
      "extent": "full-screen",
      "minimum-system-version": "8.0",
      "subtype": "736h",
      "scale": "3x",
      "size": "1242x2208",
      "idiom": "iphone",
      "filename": "Splash57.png"
    }
  ],
  "properties": {},
  "info": {
    "version": 1,
    "author": ""
  }
}