File, Used network, Picture resolution, Target error, Max. epoch, Test shapes count, Training shapes count, Hidden layer amount, Hidden layer sizes, Elapsed time converting, Elapsed time training, Final error, Final epoch, Correct test shapes guessed, Learning rate, 
Generated3Pack0, System Designer, 64, 0.005, 100, 33, 491, 3, 30-20-10, 0:00:03.747839, 0:00:56.5189514, 0.00472349310995628, 15, 27, 0.5, 
Generated3Pack1, System Designer, 64, 0.005, 100, 33, 491, 3, 30-20-5, 0:00:00, 0:01:53.413436, 0.00421085850362828, 15, 27, 0.5, 
Generated3Pack10, System Designer, 64, 0.005, 100, 33, 491, 1, 10, 0:00:00, 0:04:45.6962252, 0.0219086005576202, 100, 32, 0.25, 
Generated3Pack11, System Designer, 64, 0.005, 100, 33, 491, 3, 10-5-5, 0:00:00, 0:07:41.5411482, 0.0165219810766258, 100, 25, 0.25, 
Generated3Pack12, System Designer, 64, 0.005, 100, 33, 491, 3, 10-5-2, 0:00:00, 0:10:40.1902669, 0.0116684488679667, 100, 30, 0.25, 
Generated3Pack13, System Designer, 64, 0.005, 100, 33, 491, 2, 30-20, 0:00:00, 0:12:37.4539935, 0.0040942491103851, 32, 30, 0.25, 
Generated3Pack14, System Designer, 64, 0.005, 100, 33, 491, 3, 30-20-10, 0:00:00, 0:14:57.4051308, 0.00494374000746079, 38, 29, 0.25, 
Generated3Pack15, System Designer, 64, 0.005, 100, 33, 491, 3, 30-20-5, 0:00:00, 0:19:07.7676369, 0.00489454125441511, 69, 28, 0.25, 
Generated3Pack16, System Designer, 64, 0.005, 100, 33, 491, 10, 10-9-8-7-6-5-4-3-2-1, 0:00:00, 0:22:05.3127496, 0.36447303431557, 100, 9, 0.25, 
Generated3Pack17, System Designer, 64, 0.005, 100, 33, 491, 2, 8-4, 0:00:00, 0:24:46.4298598, 0.00770862930781728, 100, 29, 0.25, 
Generated3Pack18, System Designer, 64, 0.005, 100, 33, 491, 2, 8-2, 0:00:00, 0:27:31.7403294, 0.0495077271054922, 100, 25, 0.25, 
Generated3Pack19, System Designer, 64, 0.005, 100, 33, 491, 2, 12-10, 0:00:00, 0:30:56.9366382, 0.0154575120053348, 100, 26, 0.25, 
Generated3Pack2, System Designer, 64, 0.005, 100, 33, 491, 10, 10-9-8-7-6-5-4-3-2-1, 0:00:00, 0:34:00.7643658, 0.366004825921844, 100, 9, 0.5, 
Generated3Pack20, System Designer, 64, 0.005, 100, 33, 491, 2, 12-8, 0:00:00, 0:37:18.298715, 0.00848333404519456, 100, 25, 0.25, 
Generated3Pack21, System Designer, 64, 0.005, 100, 33, 491, 2, 12-6, 0:00:00, 0:40:34.9557378, 0.00647297757262464, 100, 30, 0.25, 
Generated3Pack22, System Designer, 64, 0.005, 100, 33, 491, 2, 12-4, 0:00:00, 0:43:51.6685907, 0.0098143024397192, 100, 31, 0.25, 
Generated3Pack23, System Designer, 64, 0.005, 100, 33, 491, 2, 10-5, 0:00:00, 0:46:48.4263123, 0.0282001280533838, 100, 25, 0.1, 
Generated3Pack24, System Designer, 64, 0.005, 100, 33, 491, 1, 10, 0:00:00, 0:49:42.838345, 0.0288135494764106, 100, 28, 0.1, 
Generated3Pack25, System Designer, 64, 0.005, 100, 33, 491, 3, 10-5-5, 0:00:00, 0:52:47.7223456, 0.0363234872577232, 100, 26, 0.1, 
Generated3Pack26, System Designer, 64, 0.005, 100, 33, 491, 3, 10-5-2, 0:00:00, 0:55:53.6807183, 0.09532424024096, 100, 25, 0.1, 
Generated3Pack27, System Designer, 64, 0.005, 100, 33, 491, 2, 30-20, 0:00:00, 1:01:36.2503673, 0.00496124082397816, 91, 25, 0.1, 
Generated3Pack28, System Designer, 64, 0.005, 100, 33, 491, 3, 30-20-10, 0:00:00, 1:04:51.9888724, 0.00492073390614365, 49, 25, 0.1, 
Generated3Pack29, System Designer, 64, 0.005, 100, 33, 491, 3, 30-20-5, 0:00:00, 1:11:05.9495552, 0.00670578007548534, 100, 26, 0.1, 
Generated3Pack3, System Designer, 64, 0.005, 100, 33, 491, 2, 8-4, 0:00:00, 1:13:46.5847717, 0.00587139677184803, 100, 30, 0.5, 
Generated3Pack30, System Designer, 64, 0.005, 100, 33, 491, 10, 10-9-8-7-6-5-4-3-2-1, 0:00:00, 1:16:52.4453207, 0.364720443456256, 100, 9, 0.1, 
Generated3Pack31, System Designer, 64, 0.005, 100, 33, 491, 2, 8-4, 0:00:00, 1:19:36.4737763, 0.0364904655514964, 100, 27, 0.1, 
Generated3Pack32, System Designer, 64, 0.005, 100, 33, 491, 2, 8-2, 0:00:00, 1:22:21.0019912, 0.0468446852049712, 100, 28, 0.1, 
Generated3Pack33, System Designer, 64, 0.005, 100, 33, 491, 2, 12-10, 0:00:00, 1:25:42.3817346, 0.022244736777079, 100, 28, 0.1, 
Generated3Pack34, System Designer, 64, 0.005, 100, 33, 491, 2, 12-8, 0:00:00, 1:29:05.5769226, 0.0195331652639949, 100, 23, 0.1, 
Generated3Pack35, System Designer, 64, 0.005, 100, 33, 491, 2, 12-6, 0:00:00, 1:32:30.6630141, 0.015885509825841, 100, 28, 0.1, 
Generated3Pack36, System Designer, 64, 0.005, 100, 33, 491, 2, 12-4, 0:00:00, 1:35:52.8013821, 0.0165192124439929, 100, 25, 0.1, 
Generated3Pack37, System Designer, 64, 0.005, 100, 33, 491, 2, 10-5, 0:00:00, 1:38:55.2154883, 0.0443826512477795, 100, 27, 0.05, 
Generated3Pack38, System Designer, 64, 0.005, 100, 33, 491, 1, 10, 0:00:00, 1:41:59.6814954, 0.0376158051096798, 100, 30, 0.05, 
Generated3Pack39, System Designer, 64, 0.005, 100, 33, 491, 3, 10-5-5, 0:00:00, 1:45:03.933055, 0.0718044743549934, 100, 25, 0.05, 
Generated3Pack4, System Designer, 64, 0.005, 100, 33, 491, 2, 8-2, 0:00:00, 1:47:48.1708405, 0.0154616897768284, 100, 28, 0.5, 
Generated3Pack40, System Designer, 64, 0.005, 100, 33, 491, 3, 10-5-2, 0:00:00, 1:50:52.5160329, 0.136166540515767, 100, 18, 0.05, 
Generated3Pack41, System Designer, 64, 0.005, 100, 33, 491, 2, 30-20, 0:00:00, 1:57:07.2339105, 0.0150750888503436, 100, 27, 0.05, 
Generated3Pack42, System Designer, 64, 0.005, 100, 33, 491, 3, 30-20-10, 0:00:00, 2:03:23.8222328, 0.0116429912530309, 100, 25, 0.05, 
Generated3Pack43, System Designer, 64, 0.005, 100, 33, 491, 3, 30-20-5, 0:00:00, 2:09:39.075418, 0.0126384792515673, 100, 26, 0.05, 
Generated3Pack44, System Designer, 64, 0.005, 100, 33, 491, 10, 10-9-8-7-6-5-4-3-2-1, 0:00:00, 2:12:45.4640077, 0.364481000483262, 100, 9, 0.05, 
Generated3Pack45, System Designer, 64, 0.005, 100, 33, 491, 2, 8-4, 0:00:00, 2:15:26.287602, 0.0417409354761614, 100, 25, 0.05, 
Generated3Pack46, System Designer, 64, 0.005, 100, 33, 491, 2, 8-2, 0:00:00, 2:18:07.0140337, 0.137075085804686, 100, 21, 0.05, 
Generated3Pack47, System Designer, 64, 0.005, 100, 33, 491, 2, 12-10, 0:00:00, 2:21:15.1669119, 0.0253728284941558, 100, 24, 0.05, 
Generated3Pack48, System Designer, 64, 0.005, 100, 33, 491, 2, 12-8, 0:00:00, 2:24:16.7027447, 0.0309786373439284, 100, 27, 0.05, 
Generated3Pack49, System Designer, 64, 0.005, 100, 33, 491, 2, 12-6, 0:00:00, 2:27:17.3959069, 0.0395827448361309, 100, 29, 0.05, 
Generated3Pack5, System Designer, 64, 0.005, 100, 33, 491, 2, 12-10, 0:00:00, 2:29:08.8380826, 0.0049966809836966, 61, 28, 0.5, 
Generated3Pack50, System Designer, 64, 0.005, 100, 33, 491, 2, 12-4, 0:00:00, 2:32:09.4439372, 0.0294064550870484, 100, 25, 0.05, 
Generated3Pack51, System Designer, 64, 0.005, 100, 33, 491, 2, 10-5, 0:00:00, 2:34:50.3237915, 0.102599408266166, 100, 21, 0.025, 
Generated3Pack52, System Designer, 64, 0.005, 100, 33, 491, 1, 10, 0:00:00, 2:37:30.9566678, 0.0700149754364773, 100, 25, 0.025, 
Generated3Pack53, System Designer, 64, 0.005, 100, 33, 491, 3, 10-5-5, 0:00:00, 2:40:12.3024217, 0.133399471506018, 100, 17, 0.025, 
Generated3Pack54, System Designer, 64, 0.005, 100, 33, 491, 3, 10-5-2, 0:00:00, 2:42:53.6860375, 0.223720976243943, 100, 16, 0.025, 
Generated3Pack55, System Designer, 64, 0.005, 100, 33, 491, 2, 30-20, 0:00:00, 2:48:19.7203811, 0.018166675101472, 100, 27, 0.025, 
Generated3Pack56, System Designer, 64, 0.005, 100, 33, 491, 3, 30-20-10, 0:00:00, 2:53:46.6972719, 0.0306160984334988, 100, 28, 0.025, 
Generated3Pack57, System Designer, 64, 0.005, 100, 33, 491, 3, 30-20-5, 0:00:00, 2:59:13.9731097, 0.0569055412703887, 100, 29, 0.025, 
Generated3Pack58, System Designer, 64, 0.005, 100, 33, 491, 10, 10-9-8-7-6-5-4-3-2-1, 0:00:00, 3:01:57.4905067, 0.364445624148323, 100, 9, 0.025, 
Generated3Pack59, System Designer, 64, 0.005, 100, 33, 491, 2, 8-4, 0:00:00, 3:04:18.6748004, 0.120726483683332, 100, 22, 0.025, 
Generated3Pack6, System Designer, 64, 0.005, 100, 33, 491, 2, 12-8, 0:00:00, 3:06:10.300865, 0.004990586328428, 61, 30, 0.5, 
Generated3Pack60, System Designer, 64, 0.005, 100, 33, 491, 2, 8-2, 0:00:00, 3:08:31.6093901, 0.167038382748083, 100, 22, 0.025, 
Generated3Pack61, System Designer, 64, 0.005, 100, 33, 491, 2, 12-10, 0:00:00, 3:11:33.7981364, 0.0520057468866891, 100, 26, 0.025, 
Generated3Pack62, System Designer, 64, 0.005, 100, 33, 491, 2, 12-8, 0:00:00, 3:14:35.2242106, 0.0782937324465466, 100, 26, 0.025, 
Generated3Pack63, System Designer, 64, 0.005, 100, 33, 491, 2, 12-6, 0:00:00, 3:17:36.5539252, 0.0915167892860337, 100, 27, 0.025, 
Generated3Pack64, System Designer, 64, 0.005, 100, 33, 491, 2, 12-4, 0:00:00, 3:20:35.2602108, 0.099372914261986, 100, 25, 0.025, 
Generated3Pack65, System Designer, 64, 0.005, 100, 33, 491, 2, 10-5, 0:00:00, 3:23:15.5818016, 0.168226319049374, 100, 18, 0.01, 
Generated3Pack66, System Designer, 64, 0.005, 100, 33, 491, 1, 10, 0:00:00, 3:25:56.8255189, 0.151014618448613, 100, 20, 0.01, 
Generated3Pack67, System Designer, 64, 0.005, 100, 33, 491, 3, 10-5-5, 0:00:00, 3:28:38.3554034, 0.277530205489867, 100, 17, 0.01, 
Generated3Pack68, System Designer, 64, 0.005, 100, 33, 491, 3, 10-5-2, 0:00:00, 3:31:19.9063732, 0.254985445753624, 100, 12, 0.01, 
Generated3Pack69, System Designer, 64, 0.005, 100, 33, 491, 2, 30-20, 0:00:00, 3:36:45.9224202, 0.0861639888666537, 100, 25, 0.01, 
Generated3Pack7, System Designer, 64, 0.005, 100, 33, 491, 2, 12-6, 0:00:00, 3:37:51.9246448, 0.00498777835615444, 36, 30, 0.5, 
Generated3Pack70, System Designer, 64, 0.005, 100, 33, 491, 3, 30-20-10, 0:00:00, 3:43:19.0201823, 0.11417323812637, 100, 21, 0.01, 
Generated3Pack71, System Designer, 64, 0.005, 100, 33, 491, 3, 30-20-5, 0:00:00, 3:48:45.5378734, 0.161078683571717, 100, 22, 0.01, 
Generated3Pack72, System Designer, 64, 0.005, 100, 33, 491, 10, 10-9-8-7-6-5-4-3-2-1, 0:00:00, 3:51:28.7276628, 0.364441663513558, 100, 9, 0.01, 
Generated3Pack73, System Designer, 64, 0.005, 100, 33, 491, 2, 8-4, 0:00:00, 3:53:49.6747071, 0.182349376155131, 100, 19, 0.01, 
Generated3Pack74, System Designer, 64, 0.005, 100, 33, 491, 2, 8-2, 0:00:00, 3:56:10.8775589, 0.29395243198332, 100, 18, 0.01, 
Generated3Pack75, System Designer, 64, 0.005, 100, 33, 491, 2, 12-10, 0:00:00, 3:59:11.2597384, 0.142734022246104, 100, 22, 0.01, 
Generated3Pack76, System Designer, 64, 0.005, 100, 33, 491, 2, 12-8, 0:00:00, 4:02:11.6986234, 0.132436200544968, 100, 23, 0.01, 
Generated3Pack77, System Designer, 64, 0.005, 100, 33, 491, 2, 12-6, 0:00:00, 4:05:12.8201983, 0.156253139205898, 100, 21, 0.01, 
Generated3Pack78, System Designer, 64, 0.005, 100, 33, 491, 2, 12-4, 0:00:00, 4:08:11.9575293, 0.234357748120939, 100, 26, 0.01, 
Generated3Pack79, System Designer, 64, 0.005, 100, 33, 491, 2, 10-5, 0:00:00, 4:10:53.2807258, 0.230800077659077, 100, 15, 0.005, 
Generated3Pack8, System Designer, 64, 0.005, 100, 33, 491, 2, 12-4, 0:00:00, 4:12:01.5488175, 0.00498714593612164, 37, 28, 0.5, 
Generated3Pack80, System Designer, 64, 0.005, 100, 33, 491, 1, 10, 0:00:00, 4:14:42.0080698, 0.181732247545736, 100, 22, 0.005, 
Generated3Pack81, System Designer, 64, 0.005, 100, 33, 491, 3, 10-5-5, 0:00:00, 4:17:23.2409574, 0.305280923115987, 100, 12, 0.005, 
Generated3Pack82, System Designer, 64, 0.005, 100, 33, 491, 3, 10-5-2, 0:00:00, 4:20:05.3442723, 0.352446100991796, 100, 9, 0.005, 
Generated3Pack83, System Designer, 64, 0.005, 100, 33, 491, 2, 30-20, 0:00:00, 4:25:31.3026547, 0.164123017334827, 100, 25, 0.005, 
Generated3Pack84, System Designer, 64, 0.005, 100, 33, 491, 3, 30-20-10, 0:00:00, 4:30:58.0334067, 0.189632743093411, 100, 22, 0.005, 
Generated3Pack85, System Designer, 64, 0.005, 100, 33, 491, 3, 30-20-5, 0:00:00, 4:36:23.8589598, 0.26917535310883, 100, 15, 0.005, 
Generated3Pack86, System Designer, 64, 0.005, 100, 33, 491, 10, 10-9-8-7-6-5-4-3-2-1, 0:00:00, 4:39:06.269016, 0.364441774602609, 100, 9, 0.005, 
Generated3Pack87, System Designer, 64, 0.005, 100, 33, 491, 2, 8-4, 0:00:00, 4:41:27.0490796, 0.281003596166419, 100, 12, 0.005, 
Generated3Pack88, System Designer, 64, 0.005, 100, 33, 491, 2, 8-2, 0:00:00, 4:43:47.5315418, 0.322781506874491, 100, 12, 0.005, 
Generated3Pack89, System Designer, 64, 0.005, 100, 33, 491, 2, 12-10, 0:00:00, 4:46:47.6272582, 0.265002362427149, 100, 16, 0.005, 
Generated3Pack9, System Designer, 64, 0.005, 100, 33, 491, 2, 10-5, 0:00:00, 4:49:28.399255, 0.0147862611348929, 100, 25, 0.25, 
Generated3Pack90, System Designer, 64, 0.005, 100, 33, 491, 2, 12-8, 0:00:00, 4:52:29.1320987, 0.188442914737934, 100, 20, 0.005, 
Generated3Pack91, System Designer, 64, 0.005, 100, 33, 491, 2, 12-6, 0:00:00, 4:55:30.6653595, 0.296600723597255, 100, 16, 0.005, 
Generated3Pack92, System Designer, 64, 0.005, 100, 33, 491, 2, 12-4, 0:00:00, 4:58:31.1095306, 0.247078849045466, 100, 17, 0.005, 
Generated3Pack93, System Designer, 64, 0.005, 100, 33, 491, 2, 10-5, 0:00:00, 5:01:12.5084947, 0.323669622482423, 100, 9, 0.0025, 
Generated3Pack94, System Designer, 64, 0.005, 100, 33, 491, 1, 10, 0:00:00, 5:03:53.5628786, 0.274144735748836, 100, 21, 0.0025, 
Generated3Pack95, System Designer, 64, 0.005, 100, 33, 491, 3, 10-5-5, 0:00:00, 5:06:35.4228198, 0.360832037651446, 100, 8, 0.0025, 
Generated3Pack96, System Designer, 64, 0.005, 100, 33, 491, 3, 10-5-2, 0:00:00, 5:09:17.4199011, 0.363286632765606, 100, 9, 0.0025, 
Generated3Pack97, System Designer, 64, 0.005, 100, 33, 491, 2, 30-20, 0:00:00, 5:14:44.7571365, 0.263316813375639, 100, 10, 0.0025, 
Generated3Pack98, System Designer, 64, 0.005, 100, 33, 491, 3, 30-20-10, 0:00:00, 5:20:13.6961723, 0.272121091994425, 100, 12, 0.0025, 
Generated3Pack99, System Designer, 64, 0.005, 100, 33, 491, 3, 30-20-5, 0:00:00, 5:25:41.8640474, 0.30412050721491, 100, 17, 0.0025, 
