% $ biblatex auxiliary file $
% $ biblatex bbl format version 2.8 $
% Do not modify the above lines!
%
% This is an auxiliary file used by the 'biblatex' package.
% This file may safely be deleted. It will be recreated as
% required.
%
\begingroup
\makeatletter
\@ifundefined{ver@biblatex.sty}
  {\@latex@error
     {Missing 'biblatex' package}
     {The bibliography requires the 'biblatex' package.}
      \aftergroup\endinput}
  {}
\endgroup

\sortlist[entry]{nyt/global/}
  \entry{appliedSoftware}{book}{}
    \name{author}{1}{}{%
      {{hash=SJAG}{%
         family={Stellman},
         familyi={S\bibinitperiod},
         suffix={Andrew &\bibnamedelima Greene},
         suffixi={A\bibinitperiod\bibinitdelim \bibinitperiod\bibinitdelim
  G\bibinitperiod},
         given={Jennifer},
         giveni={J\bibinitperiod},
      }}%
    }
    \list{publisher}{1}{%
      {O'Reilly Media}%
    }
    \strng{namehash}{SAGJ1}
    \strng{fullhash}{SAGJ1}
    \field{labelnamesource}{author}
    \field{labeltitlesource}{title}
    \field{labelyear}{2005}
    \field{sortinit}{S}
    \field{sortinithash}{S}
    \field{isbn}{0596009488}
    \field{title}{Applied software project management}
    \field{year}{2005}
  \endentry
\endsortlist
\endinput
