\boolfalse {citerequest}\boolfalse {citetracker}\boolfalse {pagetracker}\boolfalse {backtracker}\relax 
\defcounter {refsection}{0}\relax 
\select@language {UKenglish}
\defcounter {refsection}{0}\relax 
\contentsline {chapter}{\nonumberline List of Figures}{3}{chapter*.2}
\defcounter {refsection}{0}\relax 
\contentsline {chapter}{\nonumberline Acronyms}{4}{chapter*.3}
\defcounter {refsection}{0}\relax 
\contentsline {chapter}{\numberline {1}Introduction}{5}{chapter.1}
\defcounter {refsection}{0}\relax 
\contentsline {section}{\numberline {1.1}Purpose}{5}{section.1.1}
\defcounter {refsection}{0}\relax 
\contentsline {section}{\numberline {1.2}Definitions}{5}{section.1.2}
\defcounter {refsection}{0}\relax 
\contentsline {section}{\numberline {1.3}System overview}{5}{section.1.3}
\defcounter {refsection}{0}\relax 
\contentsline {chapter}{\numberline {2}Overall description}{6}{chapter.2}
\defcounter {refsection}{0}\relax 
\contentsline {section}{\numberline {2.1}Product perspective}{6}{section.2.1}
\defcounter {refsection}{0}\relax 
\contentsline {subsection}{\numberline {2.1.1}System Interfaces}{6}{subsection.2.1.1}
\defcounter {refsection}{0}\relax 
\contentsline {subsection}{\numberline {2.1.2}User Interfaces}{6}{subsection.2.1.2}
\defcounter {refsection}{0}\relax 
\contentsline {subsection}{\numberline {2.1.3}Hardware Interfaces}{6}{subsection.2.1.3}
\defcounter {refsection}{0}\relax 
\contentsline {subsection}{\numberline {2.1.4}Software Interfaces}{6}{subsection.2.1.4}
\defcounter {refsection}{0}\relax 
\contentsline {subsection}{\numberline {2.1.5}Communication Interfaces}{6}{subsection.2.1.5}
\defcounter {refsection}{0}\relax 
\contentsline {subsection}{\numberline {2.1.6}Memory Constraints}{6}{subsection.2.1.6}
\defcounter {refsection}{0}\relax 
\contentsline {section}{\numberline {2.2}Design constraints}{6}{section.2.2}
\defcounter {refsection}{0}\relax 
\contentsline {subsection}{\numberline {2.2.1}Operations}{6}{subsection.2.2.1}
\defcounter {refsection}{0}\relax 
\contentsline {subsection}{\numberline {2.2.2}Site Adaptation Requirements}{6}{subsection.2.2.2}
\defcounter {refsection}{0}\relax 
\contentsline {section}{\numberline {2.3}Product functions}{6}{section.2.3}
\defcounter {refsection}{0}\relax 
\contentsline {section}{\numberline {2.4}User characteristics}{6}{section.2.4}
\defcounter {refsection}{0}\relax 
\contentsline {section}{\numberline {2.5}Constraints, assumptions and dependencies}{6}{section.2.5}
\defcounter {refsection}{0}\relax 
\contentsline {chapter}{\numberline {3}Specific Requirements}{7}{chapter.3}
\defcounter {refsection}{0}\relax 
\contentsline {section}{\numberline {3.1}External interface requirements}{7}{section.3.1}
\defcounter {refsection}{0}\relax 
\contentsline {section}{\numberline {3.2}Functional Requirements}{8}{section.3.2}
\defcounter {refsection}{0}\relax 
\contentsline {section}{\numberline {3.3}Performance Requirements}{9}{section.3.3}
\defcounter {refsection}{0}\relax 
\contentsline {section}{\numberline {3.4}Logical database requirements}{9}{section.3.4}
\defcounter {refsection}{0}\relax 
\contentsline {section}{\numberline {3.5}Software system attributes}{9}{section.3.5}
\defcounter {refsection}{0}\relax 
\contentsline {subsection}{\numberline {3.5.1}Reliability}{9}{subsection.3.5.1}
\defcounter {refsection}{0}\relax 
\contentsline {subsection}{\numberline {3.5.2}Availability}{9}{subsection.3.5.2}
\defcounter {refsection}{0}\relax 
\contentsline {subsection}{\numberline {3.5.3}Security}{9}{subsection.3.5.3}
\defcounter {refsection}{0}\relax 
\contentsline {subsection}{\numberline {3.5.4}Maintainability}{9}{subsection.3.5.4}
\defcounter {refsection}{0}\relax 
\contentsline {subsection}{\numberline {3.5.5}Portability}{9}{subsection.3.5.5}
\defcounter {refsection}{0}\relax 
\contentsline {chapter}{\nonumberline Bibliography}{10}{chapter*.4}
