\BOOKMARK [0][-]{chapter*.2}{List of Figures}{}% 1
\BOOKMARK [0][-]{chapter*.3}{Acronyms}{}% 2
\BOOKMARK [0][-]{chapter.1}{Introduction}{}% 3
\BOOKMARK [1][-]{section.1.1}{Purpose}{chapter.1}% 4
\BOOKMARK [1][-]{section.1.2}{Definitions}{chapter.1}% 5
\BOOKMARK [1][-]{section.1.3}{System overview}{chapter.1}% 6
\BOOKMARK [0][-]{chapter.2}{Overall description}{}% 7
\BOOKMARK [1][-]{section.2.1}{Product perspective}{chapter.2}% 8
\BOOKMARK [2][-]{subsection.2.1.1}{System Interfaces}{section.2.1}% 9
\BOOKMARK [2][-]{subsection.2.1.2}{User Interfaces}{section.2.1}% 10
\BOOKMARK [2][-]{subsection.2.1.3}{Hardware Interfaces}{section.2.1}% 11
\BOOKMARK [2][-]{subsection.2.1.4}{Software Interfaces}{section.2.1}% 12
\BOOKMARK [2][-]{subsection.2.1.5}{Communication Interfaces}{section.2.1}% 13
\BOOKMARK [2][-]{subsection.2.1.6}{Memory Constraints}{section.2.1}% 14
\BOOKMARK [1][-]{section.2.2}{Design constraints}{chapter.2}% 15
\BOOKMARK [2][-]{subsection.2.2.1}{Operations}{section.2.2}% 16
\BOOKMARK [2][-]{subsection.2.2.2}{Site Adaptation Requirements}{section.2.2}% 17
\BOOKMARK [1][-]{section.2.3}{Product functions}{chapter.2}% 18
\BOOKMARK [1][-]{section.2.4}{User characteristics}{chapter.2}% 19
\BOOKMARK [1][-]{section.2.5}{Constraints, assumptions and dependencies}{chapter.2}% 20
\BOOKMARK [0][-]{chapter.3}{Specific Requirements}{}% 21
\BOOKMARK [1][-]{section.3.1}{External interface requirements}{chapter.3}% 22
\BOOKMARK [1][-]{section.3.2}{Functional Requirements}{chapter.3}% 23
\BOOKMARK [1][-]{section.3.3}{Performance Requirements}{chapter.3}% 24
\BOOKMARK [1][-]{section.3.4}{Logical database requirements}{chapter.3}% 25
\BOOKMARK [1][-]{section.3.5}{Software system attributes}{chapter.3}% 26
\BOOKMARK [2][-]{subsection.3.5.1}{Reliability}{section.3.5}% 27
\BOOKMARK [2][-]{subsection.3.5.2}{Availability}{section.3.5}% 28
\BOOKMARK [2][-]{subsection.3.5.3}{Security}{section.3.5}% 29
\BOOKMARK [2][-]{subsection.3.5.4}{Maintainability}{section.3.5}% 30
\BOOKMARK [2][-]{subsection.3.5.5}{Portability}{section.3.5}% 31
\BOOKMARK [0][-]{chapter*.4}{Bibliography}{}% 32
